mux2x1/tb_mux2x1.vcd
$date
	Sat May 31 14:10:53 2025
$end
$version
	Icarus Verilog
$end
$timescale
	1ps
$end
$scope module tb_mux2x1 $end
$var wire 1 ! y $end
$var reg 1 " a $end
$var reg 1 # b $end
$var reg 1 $ sel $end
$scope module uut $end
$var wire 1 " a $end
$var wire 1 # b $end
$var wire 1 $ sel $end
$var wire 1 ! y $end
$upscope $end
$upscope $end
$enddefinitions $end
$comment Show the parameter values. $end
$dumpall
$end
#0
$dumpvars
0$
0#
0"
0!
$end
#20000
1#
#30000
1!
0#
1"
#40000
1#
#50000
0!
1$
0#
0"
#60000
1!
1#
#70000
0!
0#
1"
#80000
1!
1#
